digraph "FpsCounter"
{
  edge [fontname="Helvetica",fontsize="10",labelfontname="Helvetica",labelfontsize="10"];
  node [fontname="Helvetica",fontsize="10",shape=record];
  Node1 [label="FpsCounter",height=0.2,width=0.4,color="black", fillcolor="grey75", style="filled", fontcolor="black"];
  Node2 -> Node1 [dir="back",color="darkorchid3",fontsize="10",style="dashed",label=" timer" ,fontname="Helvetica"];
  Node2 [label="Timer",height=0.2,width=0.4,color="black", fillcolor="white", style="filled",URL="$classTimer.html",tooltip="simple class which can be used to execute a piece of code every x seconds "];
}
