digraph "TrackingDataManager"
{
  edge [fontname="Helvetica",fontsize="10",labelfontname="Helvetica",labelfontsize="10"];
  node [fontname="Helvetica",fontsize="10",shape=record];
  Node1 [label="TrackingDataManager",height=0.2,width=0.4,color="black", fillcolor="grey75", style="filled", fontcolor="black"];
  Node2 -> Node1 [dir="back",color="darkorchid3",fontsize="10",style="dashed",label=" trackingStringListener" ,fontname="Helvetica"];
  Node2 [label="TrackingStringListener",height=0.2,width=0.4,color="black", fillcolor="white", style="filled",URL="$classTrackingStringListener.html",tooltip="class which constantly listens for a new tracking string from DTrack in a separate thread ..."];
  Node3 -> Node1 [dir="back",color="darkorchid3",fontsize="10",style="dashed",label=" trackingData" ,fontname="Helvetica"];
  Node3 [label="TrackingData",height=0.2,width=0.4,color="black", fillcolor="white", style="filled",URL="$structTrackingData.html",tooltip="struct containing multiple trackers "];
}
