digraph "UIElementWrapper"
{
  edge [fontname="Helvetica",fontsize="10",labelfontname="Helvetica",labelfontsize="10"];
  node [fontname="Helvetica",fontsize="10",shape=record];
  Node1 [label="UIElementWrapper",height=0.2,width=0.4,color="black", fillcolor="grey75", style="filled", fontcolor="black"];
  Node2 -> Node1 [dir="back",color="midnightblue",fontsize="10",style="solid",fontname="Helvetica"];
  Node2 [label="Wrapper\< UIElement \>",height=0.2,width=0.4,color="black", fillcolor="white", style="filled",URL="$classWrapper.html"];
  Node3 -> Node1 [dir="back",color="darkorchid3",fontsize="10",style="dashed",label=" button" ,fontname="Helvetica"];
  Node3 [label="Button",height=0.2,width=0.4,color="black", fillcolor="white", style="filled",URL="$classButton.html",tooltip="class representing a foot rectangle with differing constructor implementation "];
  Node4 -> Node3 [dir="back",color="midnightblue",fontsize="10",style="solid",fontname="Helvetica"];
  Node4 [label="Rectangle",height=0.2,width=0.4,color="black", fillcolor="white", style="filled",URL="$classRectangle.html",tooltip="base class representing a rectangle in 3D represented by a single vertex and two vectors which lead t..."];
}
