digraph "Graphical Class Hierarchy"
{
  edge [fontname="Helvetica",fontsize="10",labelfontname="Helvetica",labelfontsize="10"];
  node [fontname="Helvetica",fontsize="10",shape=record];
  rankdir="LR";
  Node1 [label="Tracker",height=0.2,width=0.4,color="black", fillcolor="white", style="filled",URL="$classTracker.html",tooltip="struct containing all values contained in a single tracker of TrackingStringListener::trackingString ..."];
}
