digraph "Foot"
{
  edge [fontname="Helvetica",fontsize="10",labelfontname="Helvetica",labelfontsize="10"];
  node [fontname="Helvetica",fontsize="10",shape=record];
  Node1 [label="Foot",height=0.2,width=0.4,color="black", fillcolor="grey75", style="filled", fontcolor="black"];
  Node2 -> Node1 [dir="back",color="midnightblue",fontsize="10",style="solid"];
  Node2 [label="Rectangle",height=0.2,width=0.4,color="black", fillcolor="white", style="filled",URL="$classRectangle.html",tooltip="base class representing a rectangle in 3D represented by a single vertex and two vectors which lead t..."];
}
